A D/App_hor////
A D/Base_val////
A D/Base_vect////
A D/Bhole////
A D/Bhole_binaire////
A D/Bin_bhns////
A D/Bin_bhns_extr////
A D/Bin_hor////
A D/Bin_ns_bh////
A D/Bin_ns_ncp////
A D/Binaire////
A D/Binary////
A D/Binary_xcts////
A D/Black_hole////
A D/Champ_cart////
A D/Change_var////
A D/Cmp////
A D/Compobj////
A D/Connection////
A D/Coord////
A D/Diff////
A D/Dim_tbl////
A D/Eos////
A D/Etoile////
A D/Excised_slice////
A D/Gravastar////
A D/Grille3d////
A D/Grille_cart////
A D/Hole_bhns////
A D/Isol_hole////
A D/Isol_hor////
A D/Itbl////
A D/Map////
A D/Map_cart////
A D/Matrice////
A D/Metric////
A D/Metrique////
A D/Mg3d////
A D/Mtbl////
A D/Mtbl_cf////
A D/Non_class_members////
A D/Ope_elementary////
A D/Param////
A D/Param_elliptic////
A D/QuadriD////
A D/Star////
A D/Star_bhns////
A D/Tbl////
A D/Tenseur////
A D/Tensor////
A D/Time_slice////
A D/Valencia////
A D/Valeur////
